{
    "count": 905,
    "next": "https://pokeapi.co/api/v2/pokemon-species?offset=50&limit=50",
    "previous": null,
    "results": [
        {
            "name": "bulbasaur",
            "url": "https://pokeapi.co/api/v2/pokemon-species/1/"
        },
        {
            "name": "ivysaur",
            "url": "https://pokeapi.co/api/v2/pokemon-species/2/"
        },
        {
            "name": "venusaur",
            "url": "https://pokeapi.co/api/v2/pokemon-species/3/"
        },
        {
            "name": "charmander",
            "url": "https://pokeapi.co/api/v2/pokemon-species/4/"
        },
        {
            "name": "charmeleon",
            "url": "https://pokeapi.co/api/v2/pokemon-species/5/"
        },
        {
            "name": "charizard",
            "url": "https://pokeapi.co/api/v2/pokemon-species/6/"
        },
        {
            "name": "squirtle",
            "url": "https://pokeapi.co/api/v2/pokemon-species/7/"
        },
        {
            "name": "wartortle",
            "url": "https://pokeapi.co/api/v2/pokemon-species/8/"
        },
        {
            "name": "blastoise",
            "url": "https://pokeapi.co/api/v2/pokemon-species/9/"
        },
        {
            "name": "caterpie",
            "url": "https://pokeapi.co/api/v2/pokemon-species/10/"
        },
        {
            "name": "metapod",
            "url": "https://pokeapi.co/api/v2/pokemon-species/11/"
        },
        {
            "name": "butterfree",
            "url": "https://pokeapi.co/api/v2/pokemon-species/12/"
        },
        {
            "name": "weedle",
            "url": "https://pokeapi.co/api/v2/pokemon-species/13/"
        },
        {
            "name": "kakuna",
            "url": "https://pokeapi.co/api/v2/pokemon-species/14/"
        },
        {
            "name": "beedrill",
            "url": "https://pokeapi.co/api/v2/pokemon-species/15/"
        },
        {
            "name": "pidgey",
            "url": "https://pokeapi.co/api/v2/pokemon-species/16/"
        },
        {
            "name": "pidgeotto",
            "url": "https://pokeapi.co/api/v2/pokemon-species/17/"
        },
        {
            "name": "pidgeot",
            "url": "https://pokeapi.co/api/v2/pokemon-species/18/"
        },
        {
            "name": "rattata",
            "url": "https://pokeapi.co/api/v2/pokemon-species/19/"
        },
        {
            "name": "raticate",
            "url": "https://pokeapi.co/api/v2/pokemon-species/20/"
        },
        {
            "name": "spearow",
            "url": "https://pokeapi.co/api/v2/pokemon-species/21/"
        },
        {
            "name": "fearow",
            "url": "https://pokeapi.co/api/v2/pokemon-species/22/"
        },
        {
            "name": "ekans",
            "url": "https://pokeapi.co/api/v2/pokemon-species/23/"
        },
        {
            "name": "arbok",
            "url": "https://pokeapi.co/api/v2/pokemon-species/24/"
        },
        {
            "name": "pikachu",
            "url": "https://pokeapi.co/api/v2/pokemon-species/25/"
        },
        {
            "name": "raichu",
            "url": "https://pokeapi.co/api/v2/pokemon-species/26/"
        },
        {
            "name": "sandshrew",
            "url": "https://pokeapi.co/api/v2/pokemon-species/27/"
        },
        {
            "name": "sandslash",
            "url": "https://pokeapi.co/api/v2/pokemon-species/28/"
        },
        {
            "name": "nidoran-f",
            "url": "https://pokeapi.co/api/v2/pokemon-species/29/"
        },
        {
            "name": "nidorina",
            "url": "https://pokeapi.co/api/v2/pokemon-species/30/"
        },
        {
            "name": "nidoqueen",
            "url": "https://pokeapi.co/api/v2/pokemon-species/31/"
        },
        {
            "name": "nidoran-m",
            "url": "https://pokeapi.co/api/v2/pokemon-species/32/"
        },
        {
            "name": "nidorino",
            "url": "https://pokeapi.co/api/v2/pokemon-species/33/"
        },
        {
            "name": "nidoking",
            "url": "https://pokeapi.co/api/v2/pokemon-species/34/"
        },
        {
            "name": "clefairy",
            "url": "https://pokeapi.co/api/v2/pokemon-species/35/"
        },
        {
            "name": "clefable",
            "url": "https://pokeapi.co/api/v2/pokemon-species/36/"
        },
        {
            "name": "vulpix",
            "url": "https://pokeapi.co/api/v2/pokemon-species/37/"
        },
        {
            "name": "ninetales",
            "url": "https://pokeapi.co/api/v2/pokemon-species/38/"
        },
        {
            "name": "jigglypuff",
            "url": "https://pokeapi.co/api/v2/pokemon-species/39/"
        },
        {
            "name": "wigglytuff",
            "url": "https://pokeapi.co/api/v2/pokemon-species/40/"
        },
        {
            "name": "zubat",
            "url": "https://pokeapi.co/api/v2/pokemon-species/41/"
        },
        {
            "name": "golbat",
            "url": "https://pokeapi.co/api/v2/pokemon-species/42/"
        },
        {
            "name": "oddish",
            "url": "https://pokeapi.co/api/v2/pokemon-species/43/"
        },
        {
            "name": "gloom",
            "url": "https://pokeapi.co/api/v2/pokemon-species/44/"
        },
        {
            "name": "vileplume",
            "url": "https://pokeapi.co/api/v2/pokemon-species/45/"
        },
        {
            "name": "paras",
            "url": "https://pokeapi.co/api/v2/pokemon-species/46/"
        },
        {
            "name": "parasect",
            "url": "https://pokeapi.co/api/v2/pokemon-species/47/"
        },
        {
            "name": "venonat",
            "url": "https://pokeapi.co/api/v2/pokemon-species/48/"
        },
        {
            "name": "venomoth",
            "url": "https://pokeapi.co/api/v2/pokemon-species/49/"
        },
        {
            "name": "diglett",
            "url": "https://pokeapi.co/api/v2/pokemon-species/50/"
        }
    ]
}
